{
  "href": "https://api.spotify.com/v1/me/tracks?offset=0&limit=2",
  "items": [
    {
      "added_at": "2018-11-19T20:59:30Z",
      "track": {
        "album": {
          "album_type": "album",
          "artists": [
            {
              "external_urls": {
                "spotify": "https://open.spotify.com/artist/5wTDSzqp1zaULJlPK2Zv83"
              },
              "href": "https://api.spotify.com/v1/artists/5wTDSzqp1zaULJlPK2Zv83",
              "id": "5wTDSzqp1zaULJlPK2Zv83",
              "name": "Dominic Pierce",
              "type": "artist",
              "uri": "spotify:artist:5wTDSzqp1zaULJlPK2Zv83"
            }
          ],
          "available_markets": [
            "AD",
            "AE",
            "AR",
            "AT",
            "AU",
            "BE",
            "BG",
            "BH",
            "BO",
            "BR",
            "CA",
            "CH",
            "CL",
            "CO",
            "CR",
            "CY",
            "CZ",
            "DE",
            "DK",
            "DO",
            "DZ",
            "EC",
            "EE",
            "EG",
            "ES",
            "FI",
            "FR",
            "GB",
            "GR",
            "GT",
            "HK",
            "HN",
            "HU",
            "ID",
            "IE",
            "IL",
            "IN",
            "IS",
            "IT",
            "JO",
            "JP",
            "KW",
            "LB",
            "LI",
            "LT",
            "LU",
            "LV",
            "MA",
            "MC",
            "MT",
            "MX",
            "MY",
            "NI",
            "NL",
            "NO",
            "NZ",
            "OM",
            "PA",
            "PE",
            "PH",
            "PL",
            "PS",
            "PT",
            "PY",
            "QA",
            "RO",
            "SA",
            "SE",
            "SG",
            "SK",
            "SV",
            "TH",
            "TN",
            "TR",
            "TW",
            "US",
            "UY",
            "VN",
            "ZA"
          ],
          "external_urls": {
            "spotify": "https://open.spotify.com/album/0UwUu8xCTUtESUdrEYBKwb"
          },
          "href": "https://api.spotify.com/v1/albums/0UwUu8xCTUtESUdrEYBKwb",
          "id": "0UwUu8xCTUtESUdrEYBKwb",
          "images": [
            {
              "height": 640,
              "url": "https://i.scdn.co/image/ab67616d0000b2734951b3f4d77bfb293813dafa",
              "width": 640
            },
            {
              "height": 300,
              "url": "https://i.scdn.co/image/ab67616d00001e024951b3f4d77bfb293813dafa",
              "width": 300
            },
            {
              "height": 64,
              "url": "https://i.scdn.co/image/ab67616d000048514951b3f4d77bfb293813dafa",
              "width": 64
            }
          ],
          "name": "Hoop Loops",
          "release_date": "2018-01-13",
          "release_date_precision": "day",
          "total_tracks": 21,
          "type": "album",
          "uri": "spotify:album:0UwUu8xCTUtESUdrEYBKwb"
        },
        "artists": [
          {
            "external_urls": {
              "spotify": "https://open.spotify.com/artist/5wTDSzqp1zaULJlPK2Zv83"
            },
            "href": "https://api.spotify.com/v1/artists/5wTDSzqp1zaULJlPK2Zv83",
            "id": "5wTDSzqp1zaULJlPK2Zv83",
            "name": "Dominic Pierce",
            "type": "artist",
            "uri": "spotify:artist:5wTDSzqp1zaULJlPK2Zv83"
          }
        ],
        "available_markets": [
          "AD",
          "AE",
          "AR",
          "AT",
          "AU",
          "BE",
          "BG",
          "BH",
          "BO",
          "BR",
          "CA",
          "CH",
          "CL",
          "CO",
          "CR",
          "CY",
          "CZ",
          "DE",
          "DK",
          "DO",
          "DZ",
          "EC",
          "EE",
          "EG",
          "ES",
          "FI",
          "FR",
          "GB",
          "GR",
          "GT",
          "HK",
          "HN",
          "HU",
          "ID",
          "IE",
          "IL",
          "IN",
          "IS",
          "IT",
          "JO",
          "JP",
          "KW",
          "LB",
          "LI",
          "LT",
          "LU",
          "LV",
          "MA",
          "MC",
          "MT",
          "MX",
          "MY",
          "NI",
          "NL",
          "NO",
          "NZ",
          "OM",
          "PA",
          "PE",
          "PH",
          "PL",
          "PS",
          "PT",
          "PY",
          "QA",
          "RO",
          "SA",
          "SE",
          "SG",
          "SK",
          "SV",
          "TH",
          "TN",
          "TR",
          "TW",
          "US",
          "UY",
          "VN",
          "ZA"
        ],
        "disc_number": 1,
        "duration_ms": 84307,
        "explicit": false,
        "external_ids": {
          "isrc": "usl4q1731054"
        },
        "external_urls": {
          "spotify": "https://open.spotify.com/track/0AydovmiBeEwPGgfpBslmT"
        },
        "href": "https://api.spotify.com/v1/tracks/0AydovmiBeEwPGgfpBslmT",
        "id": "0AydovmiBeEwPGgfpBslmT",
        "is_local": false,
        "name": "Wuz Blind",
        "popularity": 5,
        "preview_url": "https://p.scdn.co/mp3-preview/04f0e5c0cb90602f55a4c21860b6624112e3587b?cid=774b29d4f13844c495f206cafdad9c86",
        "track_number": 7,
        "type": "track",
        "uri": "spotify:track:0AydovmiBeEwPGgfpBslmT"
      }
    },
    {
      "added_at": "2018-11-19T20:59:30Z",
      "track": {
        "album": {
          "album_type": "album",
          "artists": [
            {
              "external_urls": {
                "spotify": "https://open.spotify.com/artist/5wTDSzqp1zaULJlPK2Zv83"
              },
              "href": "https://api.spotify.com/v1/artists/5wTDSzqp1zaULJlPK2Zv83",
              "id": "5wTDSzqp1zaULJlPK2Zv83",
              "name": "Dominic Pierce",
              "type": "artist",
              "uri": "spotify:artist:5wTDSzqp1zaULJlPK2Zv83"
            }
          ],
          "available_markets": [
            "AD",
            "AE",
            "AR",
            "AT",
            "AU",
            "BE",
            "BG",
            "BH",
            "BO",
            "BR",
            "CA",
            "CH",
            "CL",
            "CO",
            "CR",
            "CY",
            "CZ",
            "DE",
            "DK",
            "DO",
            "DZ",
            "EC",
            "EE",
            "EG",
            "ES",
            "FI",
            "FR",
            "GB",
            "GR",
            "GT",
            "HK",
            "HN",
            "HU",
            "ID",
            "IE",
            "IL",
            "IN",
            "IS",
            "IT",
            "JO",
            "JP",
            "KW",
            "LB",
            "LI",
            "LT",
            "LU",
            "LV",
            "MA",
            "MC",
            "MT",
            "MX",
            "MY",
            "NI",
            "NL",
            "NO",
            "NZ",
            "OM",
            "PA",
            "PE",
            "PH",
            "PL",
            "PS",
            "PT",
            "PY",
            "QA",
            "RO",
            "SA",
            "SE",
            "SG",
            "SK",
            "SV",
            "TH",
            "TN",
            "TR",
            "TW",
            "US",
            "UY",
            "VN",
            "ZA"
          ],
          "external_urls": {
            "spotify": "https://open.spotify.com/album/0UwUu8xCTUtESUdrEYBKwb"
          },
          "href": "https://api.spotify.com/v1/albums/0UwUu8xCTUtESUdrEYBKwb",
          "id": "0UwUu8xCTUtESUdrEYBKwb",
          "images": [
            {
              "height": 640,
              "url": "https://i.scdn.co/image/ab67616d0000b2734951b3f4d77bfb293813dafa",
              "width": 640
            },
            {
              "height": 300,
              "url": "https://i.scdn.co/image/ab67616d00001e024951b3f4d77bfb293813dafa",
              "width": 300
            },
            {
              "height": 64,
              "url": "https://i.scdn.co/image/ab67616d000048514951b3f4d77bfb293813dafa",
              "width": 64
            }
          ],
          "name": "Hoop Loops",
          "release_date": "2018-01-13",
          "release_date_precision": "day",
          "total_tracks": 21,
          "type": "album",
          "uri": "spotify:album:0UwUu8xCTUtESUdrEYBKwb"
        },
        "artists": [
          {
            "external_urls": {
              "spotify": "https://open.spotify.com/artist/5wTDSzqp1zaULJlPK2Zv83"
            },
            "href": "https://api.spotify.com/v1/artists/5wTDSzqp1zaULJlPK2Zv83",
            "id": "5wTDSzqp1zaULJlPK2Zv83",
            "name": "Dominic Pierce",
            "type": "artist",
            "uri": "spotify:artist:5wTDSzqp1zaULJlPK2Zv83"
          },
          {
            "external_urls": {
              "spotify": "https://open.spotify.com/artist/6QCstr3yhEVSZPQyDvvYjK"
            },
            "href": "https://api.spotify.com/v1/artists/6QCstr3yhEVSZPQyDvvYjK",
            "id": "6QCstr3yhEVSZPQyDvvYjK",
            "name": "Felivand",
            "type": "artist",
            "uri": "spotify:artist:6QCstr3yhEVSZPQyDvvYjK"
          }
        ],
        "available_markets": [
          "AD",
          "AE",
          "AR",
          "AT",
          "AU",
          "BE",
          "BG",
          "BH",
          "BO",
          "BR",
          "CA",
          "CH",
          "CL",
          "CO",
          "CR",
          "CY",
          "CZ",
          "DE",
          "DK",
          "DO",
          "DZ",
          "EC",
          "EE",
          "EG",
          "ES",
          "FI",
          "FR",
          "GB",
          "GR",
          "GT",
          "HK",
          "HN",
          "HU",
          "ID",
          "IE",
          "IL",
          "IN",
          "IS",
          "IT",
          "JO",
          "JP",
          "KW",
          "LB",
          "LI",
          "LT",
          "LU",
          "LV",
          "MA",
          "MC",
          "MT",
          "MX",
          "MY",
          "NI",
          "NL",
          "NO",
          "NZ",
          "OM",
          "PA",
          "PE",
          "PH",
          "PL",
          "PS",
          "PT",
          "PY",
          "QA",
          "RO",
          "SA",
          "SE",
          "SG",
          "SK",
          "SV",
          "TH",
          "TN",
          "TR",
          "TW",
          "US",
          "UY",
          "VN",
          "ZA"
        ],
        "disc_number": 1,
        "duration_ms": 160975,
        "explicit": false,
        "external_ids": {
          "isrc": "usl4q1731059"
        },
        "external_urls": {
          "spotify": "https://open.spotify.com/track/0XbcOQFQ9UPrIF7kKyATWw"
        },
        "href": "https://api.spotify.com/v1/tracks/0XbcOQFQ9UPrIF7kKyATWw",
        "id": "0XbcOQFQ9UPrIF7kKyATWw",
        "is_local": false,
        "name": "Still",
        "popularity": 36,
        "preview_url": "https://p.scdn.co/mp3-preview/cf45583e6abdb46acbc6cda92633a83b8219e872?cid=774b29d4f13844c495f206cafdad9c86",
        "track_number": 12,
        "type": "track",
        "uri": "spotify:track:0XbcOQFQ9UPrIF7kKyATWw"
      }
    }
  ],
  "limit": 2,
  "next": "https://api.spotify.com/v1/me/tracks?offset=2&limit=2",
  "offset": 0,
  "previous": null,
  "total": 270
}
